Notebook_Exploration_Analysis
…
## Process WEIRD
H3_age_four2 <- H3_age_four %>%
  dplyr::left_join(WEIRD, by = c("ISO3" = "iso3c")) %>%
  dplyr::mutate(WEIRD = ifelse(ISO3 == "XKX","WEIRD",WEIRD)) %>%
  dplyr::mutate(ISO3 = factor(ISO3, levels = H3_age_four_factor)) %>%
  dplyr::filter(!is.na(ageBins))

## 18~40 age 
H3_age_four2 %>% 
  dplyr::distinct(ISO3)

## # A tibble: 128 × 1
##    ISO3 
##    <fct>
##  1 AGO  
##  2 ALB  
##  3 ARE  
##  4 ARG  
##  5 ARM  
##  6 ATG  
##  7 AUS  
##  8 AUT  
##  9 AZE  
## 10 BEL  
## # ℹ 118 more rows
…
